{
  "type": "service_account",
  "project_id": "powertools-v2",
  "private_key_id": "ce91b9cc40d3795d104d01c3e4aa10aa1546e154",
  "private_key": "-----BEGIN PRIVATE KEY-----\nMIIEvAIBADANBgkqhkiG9w0BAQEFAASCBKYwggSiAgEAAoIBAQDbbf7cAN+eTevE\nJ1sloIRUqyx6UMJrxZ96pD31RPjlxCS8ttH/b2PUSgbmg3gMKVPIJ7afYYpyfHoJ\nvbdt2l29/3MFR05MktqssP+5UsTJdSU1TIBLqfb4efD/3uIxoSy1HbubU3gP881m\nKnGqrJwfvdNl6aEq2dEywTmrArkvnBVgZuTKXb1wiLrIb5Z3Rr07VbYLbNmjOwU0\nTk3ix5txH3qa72MMlkCuMgbb0uiTOEGvSdmc48nLgXriUnvqugcmus6nWxNTxiO9\nsKwwOcYBoY/+8gdRT2Vc15YBuK7ucTEKox99Z9q6ktHc3UygTuKIFKKzLIZM2P8E\nE74alqaVAgMBAAECggEAAr0iuzg/kkhCsxYSqyuPu0bPrU8ovhOfY/Z813ze5m9G\nThyyDlAjnNi3sVTewLgbVZo5S0/6XGd1Vn3JtlNNbDuuAdjb/1St6g3jgzqnPiR6\nLGoiB8+9R2iuO2Nay2fJmREf8FZgX0KZw7av6INzB2plIxaBbnl9hPaoc5v7F78D\nDwznZ18A3ZCkJg0985FrzBA4bjHpfXcE11hbGiydLcwY02xbPrCuBijLSSgFP2w/\n1fAaSgf0gAy2GcRc3cJ8SPj4wbPEGd8QM80JLipZVB9uId+PzpIn0ptKQeyI6VMX\n2k2bmIohLcD4wsPOj8dQHMj6lQ3JiPG0Vt9/9TSnGQKBgQD96tD/KcBS2SlBy1r1\nrGwaaFj+hJm3REp75C0HOq59KfleJd3VT849KsbTGpQ4W3KlnDoCJgmCbXQ2HhVD\nIpPsfAwyfSFXIp4FVckLTvJMJ/8GvE+dIj7L2NzlnlPkSO8B3gGfXLjHxdb5W1oF\ntJ55ebUgVVuQKOnRPauSt6T6GwKBgQDdOsLSI03Z052HKvaVRbrpttC/iJhliffz\nmt2Jdr1PmL6jzjRlWej2u37HfJxzDV3wg78G/floihzel6dt8knEdbY0rYEmthzU\nRvg4mhJub54TLhMuDecqfV8w8nsQKtPPmRVTpDZcOYmcgBVTkZio3nY9gWC88/oL\nKzrX6zPtDwKBgCHjtE9KGEQ2fb4tUQ+XGrqPkMkvk4CVWcedVbEwUNedwY2iSjBN\nPX6GdhD47C11byDRcCCXSQ+iYi9S5o2WUN3wVIRslQWXNjYKFBIxUD9/2xbgDVQw\nnOcCI8F110aRwWyjX94QNw1ax21yltpKGBioeNc+7UCZZVOrAnpLjnZfAoGAY1JR\nSyScfBIcpCWuxP+kVe9EsujxeozBrDW4BlIv1f9+f25Bacs+4x70YT1Zw/GZXjTX\n25zEj6GKKoktmxfu9GvgnK/Uzvtt4APoxwitA7XK41OJOuD1Csd0qDYE+BIyO/6/\na2jLGwad+IwshvNT9WTC8wQV2V8zwDXtWij3jBMCgYAgd49TwgJ0HLQHX1oht66l\nFBCwTpE2zN/Iy3vq3V7Qc52ZcwzgYeVF0/bAx/9Efb5xYr1RhZwMtnYqL0rb2gYD\n+c0WfJ+es64yg2yCn6h2xiWHeBMN2f/8WgclzOW8XfGOBjQhNz+htigsz86camGM\n4Yh57PJzOKAOUe+Bbxw5CQ==\n-----END PRIVATE KEY-----\n",
  "client_email": "workflow-spanner@powertools-v2.iam.gserviceaccount.com",
  "client_id": "105131541967439123008",
  "auth_uri": "https://accounts.google.com/o/oauth2/auth",
  "token_uri": "https://accounts.google.com/o/oauth2/token",
  "auth_provider_x509_cert_url": "https://www.googleapis.com/oauth2/v1/certs",
  "client_x509_cert_url": "https://www.googleapis.com/robot/v1/metadata/x509/workflow-spanner%40powertools-v2.iam.gserviceaccount.com"
}
