com/appspot/powertools_v2/powertools/model/ApiV2MessagesUserMessage.class
com/pt4d/activiti/beans/FileType.class
com/appspot/powertools_v2/powertools/Powertools$Users$GetGroups.class
com/appspot/powertools_v2/powertools/Powertools$FileTypes$Attributes$Update.class
com/appspot/powertools_v2/powertools/model/ApiV2MessagesEmailFromTemplateMessage.class
org/activiti/validation/ProcessValidatorFactory.class
com/appspot/powertools_v2/powertools/model/ApiV2MessagesUserStatisticsMessage.class
com/appspot/powertools_v2/powertools/Powertools$FileTypes$List.class
com/appspot/powertools_v2/powertools/model/ApiV2MessagesWorkspaceMessage.class
com/pt4d/activiti/formproperties/UserType.class
com/appspot/powertools_v2/powertools/model/ApiV2MessagesSetPermissionsRequestMessage.class
com/appspot/powertools_v2/powertools/model/ApiV2MessagesListOfTagsMessage.class
com/appspot/powertools_v2/powertools/Powertools$Internal$Counter$Increment.class
com/pt4d/activiti/beans/FileAttribute.class
com/appspot/powertools_v2/powertools/Powertools$Files$RemoveType.class
com/appspot/powertools_v2/powertools/Powertools$FileTypes$Get.class
com/appspot/powertools_v2/powertools/Powertools$Files$Delete.class
com/pt4d/activiti/services/RestCall.class
com/appspot/powertools_v2/powertools/Powertools$Files$Attachments$Insert.class
com/appspot/powertools_v2/powertools/Powertools$Settings.class
com/pt4d/activiti/listeners/tasks/SetOwnerAsCandidate.class
com/appspot/powertools_v2/powertools/Powertools$Statistics$GetDomainSharingStatistics.class
com/appspot/powertools_v2/powertools/Powertools$Workspaces.class
com/appspot/powertools_v2/powertools/Powertools$Groups$List.class
com/pt4d/activiti/caches/GroupsByUserCache.class
com/pt4d/activiti/listeners/tasks/DefaultCompleteTask.class
com/appspot/powertools_v2/powertools/model/ApiV2MessagesListOfUsersMessage.class
com/pt4d/activiti/beans/Pt4dFileManager.class
com/appspot/powertools_v2/powertools/Powertools$Internal$CreateFile.class
com/pt4d/activiti/listeners/tasks/SetWriterAsCandidate.class
com/pt4d/activiti/beans/Workspace.class
com/appspot/powertools_v2/powertools/Powertools$Files$GetType.class
com/appspot/powertools_v2/powertools/Powertools$Groups$Get.class
com/appspot/powertools_v2/powertools/model/ApiV2MessagesSimpleBooleanMessage.class
com/appspot/powertools_v2/powertools/Powertools$Files$Versions$Submit.class
com/appspot/powertools_v2/powertools/model/ApiV2MessagesListOfFilesMessage.class
com/appspot/powertools_v2/powertools/Powertools$Files$Tags$List.class
com/appspot/powertools_v2/powertools/PowertoolsScopes.class
com/appspot/powertools_v2/powertools/Powertools$Files$Attachments.class
com/appspot/powertools_v2/powertools/model/ApiV2MessagesSetPermissionsResponseMessage.class
com/appspot/powertools_v2/powertools/Powertools$Internal$CreateFolder.class
com/appspot/powertools_v2/powertools/model/ApiV2MessagesDocumentAttachmentMessage.class
com/pt4d/activiti/rest/Pt4dFileRestVariableConverter.class
com/pt4d/config/Pt4dConfig.class
com/appspot/powertools_v2/powertools/Powertools$FileTypes$Attributes$Patch.class
com/pt4d/activiti/base/Pt4dTaskListeners.class
com/appspot/powertools_v2/powertools/Powertools$Files$Tags.class
com/pt4d/activiti/rest/JsonRestVariableConverter.class
com/appspot/powertools_v2/powertools/Powertools$Files$Attributes.class
com/appspot/powertools_v2/powertools/model/ApiV2MessagesAttributesSettersMessage.class
com/appspot/powertools_v2/powertools/Powertools$Files$SetType.class
com/pt4d/activiti/listeners/tasks/SendNotificationToCandidates.class
com/appspot/powertools_v2/powertools/model/ApiV2MessagesCreateFolderMessage.class
com/appspot/powertools_v2/powertools/Powertools$Workspaces$GetByName.class
com/appspot/powertools_v2/powertools/Powertools$Statistics$GetPublicSharingStatistics.class
com/pt4d/activiti/listeners/executions/DefaultErrorEnd.class
com/appspot/powertools_v2/powertools/Powertools$Builder.class
com/pt4d/activiti/identity/Pt4dGroupManagerFactory.class
com/appspot/powertools_v2/powertools/Powertools$Files$Attributes$Insert.class
com/appspot/powertools_v2/powertools/model/ApiV2MessagesListOfDocumentAttachmentsMessage.class
com/appspot/powertools_v2/powertools/model/ApiV2MessagesFileTypeMessage.class
com/appspot/powertools_v2/powertools/model/ApiV2MessagesTagMessage.class
com/pt4d/activiti/identity/Pt4dGroupManager.class
com/appspot/powertools_v2/powertools/Powertools$FileTypes$Attributes.class
com/appspot/powertools_v2/powertools/Powertools$Internal$Counter$Get.class
com/appspot/powertools_v2/powertools/Powertools$Statistics$GetFilesStatistics.class
com/pt4d/activiti/formproperties/LabelType.class
com/appspot/powertools_v2/powertools/Powertools$Internal$Counter.class
com/pt4d/activiti/base/Pt4dJavaDelegate.class
com/appspot/powertools_v2/powertools/model/ApiV2MessagesEmailMessage.class
com/appspot/powertools_v2/powertools/model/ApiV2MessagesListOfWorkspacesMessage.class
com/appspot/powertools_v2/powertools/Powertools$Files$Lock$Delete.class
com/pt4d/activiti/listeners/tasks/SetReaderAsCandidate.class
com/pt4d/activiti/exceptions/Pt4dException.class
com/appspot/powertools_v2/powertools/Powertools$Files$Attachments$Get.class
com/appspot/powertools_v2/powertools/Powertools$Files$Versions$Get.class
com/appspot/powertools_v2/powertools/Powertools$FileTypes.class
com/appspot/powertools_v2/powertools/model/ApiV2MessagesWorkflowTaskMessage.class
com/appspot/powertools_v2/powertools/Powertools.class
com/pt4d/activiti/services/UpdateFileProperties.class
com/pt4d/activiti/beans/Pt4dFile.class
org/activiti/rest/service/api/RestResponseFactory.class
org/activiti/rest/security/BasicAuthenticationProvider.class
com/appspot/powertools_v2/powertools/Powertools$FileTypes$Insert.class
com/appspot/powertools_v2/powertools/Powertools$Users$GetWorkflowTasks.class
com/appspot/powertools_v2/powertools/model/ApiV2MessagesFileStatisticsMessage.class
com/appspot/powertools_v2/powertools/Powertools$Internal.class
com/appspot/powertools_v2/powertools/PowertoolsRequest.class
com/pt4d/activiti/beans/Tag.class
com/pt4d/activiti/services/SendEmail.class
com/appspot/powertools_v2/powertools/Powertools$Settings$SetMSOfficeEdit.class
com/pt4d/activiti/tools/CrunchifyInMemoryCache$CrunchifyCacheObject.class
com/appspot/powertools_v2/powertools/Powertools$Internal$MoveFile.class
com/appspot/powertools_v2/powertools/model/ApiV2MessagesListOfFileTypesMessage.class
com/appspot/powertools_v2/powertools/Powertools$Files$Attributes$List.class
com/appspot/powertools_v2/powertools/Powertools$Files$Attributes$Patch.class
com/appspot/powertools_v2/powertools/Powertools$Files$Versions.class
com/pt4d/activiti/services/UpdateFileTags.class
com/appspot/powertools_v2/powertools/model/ApiV2MessagesGroupMessage.class
com/appspot/powertools_v2/powertools/model/ApiV2MessagesListOfGroupsMessage.class
com/pt4d/activiti/types/Pt4dFileType.class
com/appspot/powertools_v2/powertools/Powertools$Settings$GetMSOfficeEdit.class
com/appspot/powertools_v2/powertools/Powertools$Workspaces$List.class
com/appspot/powertools_v2/powertools/model/ApiV2MessagesListOfAttachmentsIdMessage.class
com/appspot/powertools_v2/powertools/Powertools$Files$Archive.class
com/pt4d/activiti/validation/DefaultPt4dElementValidator.class
com/pt4d/activiti/delegates/GetFile.class
com/pt4d/activiti/listeners/tasks/SetOrganizerAsCandidate.class
com/appspot/powertools_v2/powertools/Powertools$Users.class
com/pt4d/activiti/listeners/executions/DefaultStart.class
com/appspot/powertools_v2/powertools/Powertools$Files$Rename.class
com/appspot/powertools_v2/powertools/model/ApiV2MessagesAttributeMessage.class
com/appspot/powertools_v2/powertools/model/ApiV2MessagesAttributeSetterMessage.class
com/pt4d/activiti/types/SerializeAsJson.class
com/appspot/powertools_v2/powertools/model/ApiV2MessagesListOfAttributesMessage.class
com/appspot/powertools_v2/powertools/Powertools$Files$Lock.class
com/appspot/powertools_v2/powertools/Powertools$FileTypes$Attributes$Get.class
com/appspot/powertools_v2/powertools/Powertools$FileTypes$Attributes$Insert.class
com/appspot/powertools_v2/powertools/Powertools$Workspaces$Delete.class
com/pt4d/activiti/beans/Attribute.class
com/appspot/powertools_v2/powertools/Powertools$Workspaces$Users$Insert.class
com/appspot/powertools_v2/powertools/Powertools$Files.class
com/pt4d/activiti/tools/PowertoolsService.class
com/appspot/powertools_v2/powertools/Powertools$Files$Get.class
com/appspot/powertools_v2/powertools/Powertools$Files$Versions$List.class
com/appspot/powertools_v2/powertools/model/ApiV2MessagesFileMessage.class
com/pt4d/activiti/config/Pt4dSpringProcessEngineConfiguration.class
com/appspot/powertools_v2/powertools/Powertools$Groups.class
com/appspot/powertools_v2/powertools/model/ApiV2MessagesListOfFileAttributesMessage.class
com/pt4d/activiti/identity/Pt4dUserManagerFactory.class
com/appspot/powertools_v2/powertools/model/ApiV2MessagesRenameWorkspaceMessage.class
com/appspot/powertools_v2/powertools/Powertools$Files$Tags$Update.class
com/pt4d/activiti/tools/CrunchifyInMemoryCache.class
com/appspot/powertools_v2/powertools/Powertools$Statistics$GetUsersStatistics.class
com/appspot/powertools_v2/powertools/Powertools$Internal$EmailFromTemplate.class
com/appspot/powertools_v2/powertools/Powertools$FileTypes$Attributes$Delete.class
com/appspot/powertools_v2/powertools/Powertools$Workspaces$Insert.class
com/appspot/powertools_v2/powertools/model/ApiV2MessagesPermissionUpdateMessage.class
com/pt4d/activiti/services/RenameFile.class
com/appspot/powertools_v2/powertools/model/ApiV2MessagesSearchPrimitiveMessage.class
com/appspot/powertools_v2/powertools/Powertools$Internal$SetFileStatus.class
com/pt4d/activiti/identity/Pt4dUserManager.class
com/appspot/powertools_v2/powertools/Powertools$Users$Get.class
com/pt4d/activiti/services/CreateFile.class
org/activiti/engine/impl/el/JuelExpression.class
com/appspot/powertools_v2/powertools/Powertools$Files$Attachments$Reorder.class
com/appspot/powertools_v2/powertools/Powertools$Files$Configure.class
com/appspot/powertools_v2/powertools/Powertools$Files$Lock$Get.class
com/appspot/powertools_v2/powertools/Powertools$FileTypes$Patch.class
com/appspot/powertools_v2/powertools/model/ApiV2MessagesSimpleMessage.class
com/appspot/powertools_v2/powertools/model/ApiV2MessagesCreateFileMessage.class
com/appspot/powertools_v2/powertools/Powertools$Users$SetLanguage.class
com/appspot/powertools_v2/powertools/Powertools$Search.class
com/appspot/powertools_v2/powertools/model/ApiV2MessagesFileAttributeMessage.class
com/appspot/powertools_v2/powertools/Powertools$Users$GetLanguage.class
com/pt4d/activiti/tools/CrunchifyInMemoryCache$1.class
com/appspot/powertools_v2/powertools/Powertools$Groups$GetUsers.class
com/appspot/powertools_v2/powertools/Powertools$Files$Attributes$Get.class
com/appspot/powertools_v2/powertools/model/ApiV2MessagesCounterMessage.class
com/appspot/powertools_v2/powertools/Powertools$Workspaces$Users.class
com/appspot/powertools_v2/powertools/model/ApiV2MessagesUpdateTagsMessage.class
com/appspot/powertools_v2/powertools/model/ApiV2MessagesLockMessage.class
com/pt4d/config/Pt4dConstants.class
com/appspot/powertools_v2/powertools/model/ApiV2MessagesEmailResponseMessage.class
com/appspot/powertools_v2/powertools/Powertools$FileTypes$Attributes$List.class
com/appspot/powertools_v2/powertools/model/ApiV2MessagesRenameFileMessage.class
com/pt4d/activiti/services/MoveFile.class
com/pt4d/activiti/types/SerializeAsJsonType.class
com/appspot/powertools_v2/powertools/model/ApiV2MessagesListOfWorkflowTasksMessage.class
com/pt4d/activiti/services/CreateVersion.class
com/appspot/powertools_v2/powertools/Powertools$FileTypes$Update.class
com/appspot/powertools_v2/powertools/Powertools$Internal$Email$Create.class
com/appspot/powertools_v2/powertools/Powertools$Workspaces$Users$Delete.class
com/appspot/powertools_v2/powertools/model/ApiV2MessagesSearchMessage.class
com/appspot/powertools_v2/powertools/Powertools$Workspaces$Rename.class
com/pt4d/activiti/listeners/tasks/SetRoleAsIdentityLinkType.class
com/appspot/powertools_v2/powertools/PowertoolsRequestInitializer.class
com/pt4d/activiti/parse/DefaultPt4dElementParser.class
com/pt4d/activiti/services/CreateFolder.class
com/appspot/powertools_v2/powertools/Powertools$Workspaces$Users$List.class
com/pt4d/activiti/services/SetPermissions.class
com/appspot/powertools_v2/powertools/Powertools$Internal$EmailFromTemplate$Create.class
com/appspot/powertools_v2/powertools/Powertools$Workspaces$Get.class
com/pt4d/activiti/services/UpdateFileStatus.class
com/appspot/powertools_v2/powertools/Powertools$FileTypes$Delete.class
com/appspot/powertools_v2/powertools/Powertools$Internal$Email.class
com/appspot/powertools_v2/powertools/Powertools$Files$Attachments$List.class
com/appspot/powertools_v2/powertools/Powertools$Internal$SetPermissions.class
com/appspot/powertools_v2/powertools/Powertools$Files$Lock$Insert.class
com/appspot/powertools_v2/powertools/Powertools$Statistics.class
com/appspot/powertools_v2/powertools/Powertools$Files$Attachments$Delete.class
com/pt4d/activiti/listeners/tasks/DefaultCreateTask.class
com/appspot/powertools_v2/powertools/Powertools$Files$Attributes$Update.class
com/appspot/powertools_v2/powertools/Powertools$Search$Find.class
com/pt4d/activiti/listeners/executions/DefaultEnd.class
